<?xml version="1.0" encoding="utf-8"?>
<!-- Generator: Adobe Illustrator 22.0.0, SVG Export Plug-In . SVG Version: 6.00 Build 0)  -->
<svg version="1.1" id="Layer_1" xmlns="http://www.w3.org/2000/svg" xmlns:xlink="http://www.w3.org/1999/xlink" x="0px" y="0px"
	 viewBox="0 0 109.9 22" style="enable-background:new 0 0 109.9 22;" xml:space="preserve">
<style type="text/css">
	.st0{fill:#FFFFFF;}
	.st1{fill:#0093D8;}
</style>
<g id="XMLID_296_">
	<g id="XMLID_300_">
		<path id="XMLID_315_" class="st0" d="M8.4,9.4c0-1-0.3-1.7-0.8-2.1C7.2,6.8,6.4,6.6,5.4,6.6c-0.6,0-1.2,0-1.7,0.1
			C3.2,6.9,2.7,7,2.2,7.2c-0.3-0.6-0.5-1.2-0.5-2c0.6-0.2,1.2-0.3,1.9-0.4c0.7-0.1,1.4-0.2,2-0.2c1.7,0,3,0.4,3.9,1.2
			c0.9,0.8,1.3,2,1.3,3.8v8.3c-0.6,0.1-1.3,0.3-2.2,0.4c-0.9,0.1-1.7,0.2-2.6,0.2c-0.8,0-1.6-0.1-2.3-0.2s-1.3-0.4-1.7-0.7
			c-0.5-0.3-0.8-0.8-1.1-1.3c-0.3-0.5-0.4-1.2-0.4-1.9c0-0.7,0.2-1.4,0.5-2c0.3-0.6,0.7-1,1.2-1.4c0.5-0.4,1.1-0.6,1.8-0.8
			c0.7-0.2,1.4-0.3,2.1-0.3c0.6,0,1,0,1.4,0c0.4,0,0.6,0.1,0.9,0.1V9.4z M8.4,11.9c-0.3,0-0.6-0.1-1-0.1c-0.4,0-0.7-0.1-1-0.1
			c-1.1,0-1.9,0.2-2.4,0.6c-0.6,0.4-0.8,1-0.8,1.8c0,0.5,0.1,0.9,0.3,1.2c0.2,0.3,0.4,0.5,0.7,0.7c0.3,0.2,0.6,0.2,0.9,0.3
			c0.3,0,0.7,0.1,1,0.1c0.4,0,0.8,0,1.2-0.1c0.4,0,0.8-0.1,1.1-0.2V11.9z"/>
		<path id="XMLID_313_" class="st0" d="M13.4,4.8c0.2,0,0.4-0.1,0.6-0.1c0.2,0,0.4,0,0.6,0c0.2,0,0.4,0,0.6,0c0.2,0,0.5,0,0.6,0.1
			v7.3c0,0.8,0.1,1.5,0.2,2.1c0.2,0.5,0.4,1,0.7,1.3s0.7,0.5,1.1,0.6c0.4,0.1,1,0.2,1.6,0.2c0.9,0,1.6-0.1,2.2-0.3V4.8
			c0.2,0,0.4-0.1,0.6-0.1c0.2,0,0.4,0,0.6,0c0.2,0,0.4,0,0.6,0c0.2,0,0.4,0,0.6,0.1v12.8c-0.6,0.2-1.3,0.3-2.2,0.5
			c-0.8,0.2-1.7,0.2-2.6,0.2c-0.8,0-1.6-0.1-2.4-0.2c-0.7-0.1-1.4-0.4-2-0.9c-0.6-0.4-1-1.1-1.3-1.9c-0.3-0.8-0.5-1.9-0.5-3.2V4.8z"
			/>
		<path id="XMLID_311_" class="st0" d="M27.5,6.9h-2l-0.1-0.4l4.4-5h0.2v3.3h3.4c0.1,0.3,0.1,0.6,0.1,1c0,0.2,0,0.4,0,0.5
			c0,0.2,0,0.3-0.1,0.5h-3.4v6c0,0.7,0,1.3,0.1,1.7c0.1,0.4,0.2,0.8,0.3,1s0.3,0.4,0.6,0.5c0.2,0.1,0.6,0.1,0.9,0.1
			c0.3,0,0.6,0,0.8-0.1c0.3,0,0.5-0.1,0.7-0.1c0.1,0.3,0.2,0.7,0.2,1.1c0,0.4,0,0.7,0,1c-0.3,0.1-0.7,0.2-1.1,0.2
			c-0.4,0-0.8,0.1-1.2,0.1c-1.2,0-2.2-0.3-2.9-0.9c-0.7-0.6-1-1.6-1-3V6.9z"/>
		<path id="XMLID_308_" class="st0" d="M40.4,18.4c-1,0-1.9-0.2-2.7-0.5c-0.8-0.4-1.4-0.8-1.9-1.5c-0.5-0.6-0.9-1.4-1.1-2.2
			c-0.2-0.8-0.4-1.8-0.4-2.7c0-1,0.1-1.9,0.4-2.7c0.2-0.8,0.6-1.6,1.1-2.2c0.5-0.6,1.2-1.1,1.9-1.5c0.8-0.4,1.7-0.5,2.7-0.5
			s1.9,0.2,2.7,0.5c0.8,0.4,1.4,0.9,1.9,1.5c0.5,0.6,0.9,1.4,1.1,2.2c0.2,0.8,0.4,1.8,0.4,2.7c0,1-0.1,1.9-0.4,2.7
			c-0.2,0.8-0.6,1.6-1.1,2.2c-0.5,0.6-1.2,1.1-1.9,1.5C42.3,18.2,41.4,18.4,40.4,18.4z M40.4,16.4c1.2,0,2.1-0.4,2.6-1.3
			c0.6-0.9,0.9-2.1,0.9-3.6c0-1.5-0.3-2.7-0.9-3.6s-1.4-1.3-2.6-1.3S38.3,7,37.8,7.9c-0.6,0.9-0.8,2-0.8,3.6c0,1.5,0.3,2.7,0.8,3.6
			C38.3,15.9,39.2,16.4,40.4,16.4z"/>
		<path id="XMLID_306_" class="st0" d="M48.6,4.8c0.2,0,0.4-0.1,0.6-0.1c0.2,0,0.4,0,0.6,0c0.2,0,0.4,0,0.5,0c0.2,0,0.3,0,0.5,0.1
			c0.1,0.3,0.1,0.6,0.2,1C51,6.3,51,6.6,51,6.9c0.2-0.3,0.3-0.6,0.6-0.9c0.2-0.3,0.5-0.5,0.8-0.8c0.3-0.2,0.7-0.4,1.1-0.5
			c0.4-0.1,0.9-0.2,1.4-0.2c1,0,1.8,0.2,2.4,0.6c0.6,0.4,1,1,1.3,1.8c0.2-0.3,0.4-0.6,0.6-0.9c0.2-0.3,0.5-0.6,0.8-0.8
			c0.3-0.2,0.7-0.4,1.1-0.5c0.4-0.1,0.8-0.2,1.3-0.2c1.5,0,2.6,0.4,3.3,1.3c0.7,0.9,1,2.1,1,3.8v8.4c-0.2,0-0.4,0.1-0.6,0.1
			c-0.2,0-0.5,0-0.6,0s-0.4,0-0.6,0c-0.2,0-0.4,0-0.6-0.1v-7.7c0-1.2-0.2-2.1-0.5-2.7c-0.4-0.6-1-0.9-1.8-0.9c-0.9,0-1.6,0.3-2.1,1
			C59.3,8.4,59,9.4,59,10.6v7.5c-0.2,0-0.4,0.1-0.6,0.1c-0.2,0-0.4,0-0.6,0c-0.2,0-0.4,0-0.6,0c-0.2,0-0.4,0-0.6-0.1v-7.9
			c0-1.2-0.2-2-0.5-2.6c-0.3-0.6-0.9-0.9-1.7-0.9c-0.4,0-0.8,0.1-1.2,0.3c-0.4,0.2-0.7,0.5-1,0.9c-0.3,0.4-0.5,0.9-0.7,1.4
			c-0.2,0.6-0.2,1.2-0.2,2v6.8c-0.2,0-0.4,0.1-0.6,0.1c-0.2,0-0.4,0-0.6,0c-0.2,0-0.4,0-0.6,0c-0.2,0-0.5,0-0.6-0.1V4.8z"/>
		<path id="XMLID_303_" class="st0" d="M76.4,9.4c0-1-0.3-1.7-0.8-2.1c-0.5-0.4-1.3-0.6-2.2-0.6c-0.6,0-1.2,0-1.7,0.1
			c-0.5,0.1-1,0.2-1.5,0.4c-0.3-0.6-0.5-1.2-0.5-2c0.6-0.2,1.2-0.3,1.9-0.4c0.7-0.1,1.4-0.2,2-0.2c1.7,0,3,0.4,3.9,1.2
			c0.9,0.8,1.3,2,1.3,3.8v8.3c-0.6,0.1-1.3,0.3-2.2,0.4c-0.9,0.1-1.7,0.2-2.6,0.2c-0.8,0-1.6-0.1-2.3-0.2c-0.7-0.2-1.3-0.4-1.7-0.7
			c-0.5-0.3-0.8-0.8-1.1-1.3c-0.3-0.5-0.4-1.2-0.4-1.9c0-0.7,0.2-1.4,0.5-2c0.3-0.6,0.7-1,1.2-1.4c0.5-0.4,1.1-0.6,1.8-0.8
			c0.7-0.2,1.4-0.3,2.1-0.3c0.6,0,1,0,1.4,0c0.4,0,0.6,0.1,0.9,0.1V9.4z M76.4,11.9c-0.3,0-0.6-0.1-1-0.1c-0.4,0-0.7-0.1-1-0.1
			c-1.1,0-1.9,0.2-2.4,0.6c-0.6,0.4-0.8,1-0.8,1.8c0,0.5,0.1,0.9,0.3,1.2c0.2,0.3,0.4,0.5,0.7,0.7c0.3,0.2,0.6,0.2,0.9,0.3
			c0.3,0,0.7,0.1,1,0.1c0.4,0,0.8,0,1.2-0.1c0.4,0,0.8-0.1,1.1-0.2V11.9z"/>
		<path id="XMLID_301_" class="st0" d="M81.9,6.9h-2l-0.1-0.4l4.4-5h0.2v3.3h3.4c0.1,0.3,0.1,0.6,0.1,1c0,0.2,0,0.4,0,0.5
			c0,0.2,0,0.3-0.1,0.5h-3.4v6c0,0.7,0,1.3,0.1,1.7c0.1,0.4,0.2,0.8,0.3,1c0.1,0.2,0.3,0.4,0.6,0.5c0.2,0.1,0.6,0.1,0.9,0.1
			c0.3,0,0.6,0,0.8-0.1c0.3,0,0.5-0.1,0.7-0.1c0.1,0.3,0.2,0.7,0.2,1.1c0,0.4,0,0.7,0,1c-0.3,0.1-0.7,0.2-1.1,0.2
			c-0.4,0-0.8,0.1-1.2,0.1c-1.2,0-2.2-0.3-2.9-0.9c-0.7-0.6-1-1.6-1-3V6.9z"/>
	</g>
	<path id="XMLID_297_" class="st1" d="M108.3,11.3c-1-0.3-1.3-2.7-0.4-3.2c0.3-0.2,0.5-0.4,0.6-0.7c-0.2-0.8-1-2-1.4-2.5
		c-0.3,0-0.6,0.1-0.9,0.2c-0.9,0.5-2.8-0.9-2.6-2c0.1-0.3,0-0.7,0-1c-0.5-0.3-1.8-0.6-2.7-0.7c-0.2,0.1-0.4,0.5-0.5,0.8
		c-0.3,1.1-2.7,1.3-3.2,0.4c-0.2-0.3-0.5-0.6-0.7-0.7c-0.6,0.2-1.9,0.9-2.4,1.4c0,0.3,0,0.7,0.2,1c0.5,0.9-0.9,2.9-2,2.6
		c-0.4-0.1-0.7-0.1-1,0.1c-0.3,0.6-0.6,2-0.7,2.6c0.1,0.2,0.5,0.5,0.9,0.5c1.5,0.4,1.5,2.6,0.4,3.2c-0.3,0.2-0.6,0.4-0.7,0.7
		c0.2,0.6,0.9,1.9,1.4,2.4c0.3,0,0.7,0,1-0.2c1-0.6,2.9,0.8,2.6,2c-0.1,0.3,0,0.7,0,1c0.7,0.3,2,0.7,2.8,0.7
		c0.2-0.2,0.4-0.5,0.5-0.8c0.3-1.1,2.6-1.4,3.2-0.4c0.2,0.3,0.4,0.5,0.6,0.7c0.8-0.2,2.1-1,2.6-1.4c0-0.3-0.1-0.6-0.3-0.9
		c-0.6-1,0.8-2.9,2-2.6c0.3,0.1,0.7,0.1,1,0c0.3-0.6,0.7-1.8,0.7-2.7C108.9,11.5,108.6,11.4,108.3,11.3z M104.8,12
		c-0.7,2.6-3.4,4.2-6,3.5c-2.6-0.7-4.2-3.4-3.5-6c0.7-2.6,3.4-4.2,6-3.5C103.9,6.6,105.5,9.3,104.8,12z"/>
</g>
</svg>
