<?xml version="1.0" encoding="UTF-8"?>
<svg width="168px" height="81px" viewBox="0 0 168 81" version="1.1" xmlns="http://www.w3.org/2000/svg" xmlns:xlink="http://www.w3.org/1999/xlink">
    <!-- Generator: Sketch 47.1 (45422) - http://www.bohemiancoding.com/sketch -->
    <title>Combined Shape Copy</title>
    <desc>Created with Sketch.</desc>
    <defs></defs>
    <g id="Page-1" stroke="none" stroke-width="1" fill="none" fill-rule="evenodd" opacity="0.205785779">
        <g id="Desktop-Copy-9" transform="translate(-323.000000, -561.000000)" fill="#FFFFFF">
            <path d="M323.000001,641.651682 C324.55421,596.845875 361.366615,561 406.551273,561 C451.735931,561 488.548336,596.845875 490.102545,641.651682 L488.134196,641.651699 C486.580958,597.932533 450.649421,562.967115 406.551273,562.967115 C362.453125,562.967115 326.521587,597.932533 324.96835,641.651681 L323,641.651699 Z" id="Combined-Shape-Copy"></path>
        </g>
    </g>
</svg>